Melbourne House Price Predictions
…
#Optimizing Business Question : Which suburbs are the best to buy in?

suburb_prices <- housing_data %>%
  group_by(Suburb) %>%
  summarise(avg_price = mean(Price, na.rm = TRUE)) %>%
  arrange(desc(avg_price))
print(suburb_prices)

## # A tibble: 314 × 2
##    Suburb       avg_price
##    <chr>            <dbl>
##  1 Kooyong       2185000 
##  2 Canterbury    2180241.
##  3 Middle Park   2082529.
##  4 Albert Park   1941355.
##  5 Brighton      1930158 
##  6 Balwyn        1869879.
##  7 Eaglemont     1831696.
##  8 Balwyn North  1793405.
##  9 Malvern       1764993.
## 10 Kew           1758435.
## # ℹ 304 more rows
…
